181, 184
230, 153
215, 179
84, 274
294, 274
127, 259
207, 296
76, 54
187, 53
318, 307
213, 101
111, 71
310, 295
40, 140
176, 265
98, 261
315, 234
106, 57
40, 188
132, 292
132, 312
97, 334
292, 293
124, 65
224, 322
257, 162
266, 261
116, 122
80, 319
271, 326
278, 231
191, 115
277, 184
329, 351
58, 155
193, 147
45, 68
310, 237
171, 132
234, 152
158, 189
212, 100
346, 225
257, 159
330, 112
204, 320
199, 348
207, 189
130, 289
264, 223

